!!!SBtab Document='for_MDF' SBtabVersion='1.0' Date='2020-11-2'
!!SBtab TableID='Configuration' TableType='Config' TableName='Config_unnamed' Date='2020-11-2'
!Option	!Value	!Comment
algorithm	MDF	ECM, or MDF
p_h	7.5	
ionic_strength	100 mM	
p_mg	3	
stdev_factor	1.96	

!!SBtabTableID='Reaction'TableType='Reaction' TableName='Reaction_unnamed' Date='2020-11-2'
!ID	!ReactionFormula
faldh2	hmgth_c + nad_c <=> Sfglutth_c + h_c + nadh_c
falgthls	fald_c + gthrd_c <=> hmgth_c
sfgthi	Sfglutth_c + h2o_c <=> for_c + gthrd_c + h_c
r01143	ch4_c + h_c + nadph_c + o2_c <=> h2o_c + meoh_c + nadp_c
alcd1	meoh_c + nad_c <=> fald_c + h_c + nadh_c

!!SBtabTableID='Compound'TableType='Compound' TableName='Compound_unnamed' Date='2020-11-2'
!ID	!Identifiers
hmgth_c	kegg:C14180
nad_c	kegg:C00003
Sfglutth_c	kegg:C01031
h_c	kegg:C00080
nadh_c	kegg:C00004
fald_c	kegg:C00067
gthrd_c	kegg:C00051
h2o_c	kegg:C00001
for_c	kegg:C00058
ch4_c	kegg:C01438
nadph_c	kegg:C00005
o2_c	kegg:C00007
meoh_c	kegg:C00132
nadp_c	kegg:C00006

!!SBtabTableID='Flux'TableType='Quantity':Unit='mM/s' TableName='Quantity_unnamed' Date='2020-11-2'
!QuantityType	!Reaction	!Value
rate of reaction	faldh2	1.0
rate of reaction	falgthls	1.0
rate of reaction	sfgthi	1.0
rate of reaction	r01143	1.0
rate of reaction	alcd1	1.0

!!SBtabTableID='ConcentrationConstraint'TableType='Quantity':Unit='mM' TableName='Quantity_unnamed' Date='2020-11-2'
!QuantityType	!Compound	!Min	!Max
concentration	hmgth_c	0.001	10
concentration	nad_c	0.001	10
concentration	Sfglutth_c	0.001	10
concentration	h_c	0.001	10
concentration	nadh_c	0.001	10
concentration	fald_c	0.001	10
concentration	gthrd_c	0.001	10
concentration	h2o_c	0.001	10
concentration	for_c	0.001	10
concentration	ch4_c	1.247	8.105
concentration	nadph_c	0.001	10
concentration	o2_c	0.001	10
concentration	meoh_c	0.001	10
concentration	nadp_c	0.001	10

